{
    "$schema": "http://json-schema.org/draft-06/schema",

    "type": "object",
    "description": "The expected solution is an array with the indexes of the choices selected by the player.",
    "properties": {
        "attempt": {
            "type": "array",
            "items": {
                "type": "integer"
            },
            "minItems": 1
        }
    },
    "required": ["attempt"]
}
